"";"warehouse";"warehouse_lat";"warehouse_lng";"factory"
"1";"Benesov";"497.837.821";"146.873.699";FALSE
"2";"Beroun";"499.672.047";"140.862.836";FALSE
"3";"Blansko";"493.648.502";"166.477.552";FALSE
"4";"Brno";"491.950.602";"166.068.371";FALSE
"5";"Bruntal";"499.881.767";"174.636.941";FALSE
"6";"Breclav";"4.875.313.999.999.990";"168.825.169";FALSE
"7";"Ceska Lipa";"506.785.201";"145.396.991";FALSE
"8";"Ceske Budejovice";"489.756.578";"14.480.255";FALSE
"9";"Cesky Krumlov";"488.127.354";"143.174.657";FALSE
"10";"Decin";"5.077.255.630.000.000";"142.127.612";FALSE
"11";"Domazlice";"494.397.027";"129.311.435";FALSE
"12";"Frydek-Mistek";"496.819.305";"183.673.216";FALSE
"13";"Havlickuv Brod";"496.043.364";"155.796.552";FALSE
"14";"Hodonin";"488.529.391";"171.260.025";FALSE
"15";"Hradec Kralove";"502.103.605";"15.825.211";FALSE
"16";"Cheb";"500.795.334";"123.698.636";FALSE
"17";"Chomutov";"504.634.975";"13.410.737";FALSE
"18";"Chrudim";"499.497.244";"157.950.577";FALSE
"19";"Jablonec nad Nisou";"507.220.528";"151.703.135";FALSE
"20";"Jesenik";"5.022.462.489.999.990";"171.980.471";FALSE
"21";"Jicin";"504.353.325";"15.361.044";FALSE
"22";"Jihlava";"493.983.782";"155.870.415";FALSE
"23";"Jindrichuv Hradec";"491.444.823";"150.061.389";FALSE
"24";"Jirice";"495.532.201";"153.183.401";FALSE
"25";"Karlovy Vary";"502.318.521";"128.719.616";FALSE
"26";"Karvina";"4.985.665.239.999.990";"185.432.186";FALSE
"27";"Kladno";"501.416.986";"141.067.465";FALSE
"28";"Klatovy";"493.955.549";"132.950.937";FALSE
"29";"Kolin";"5.002.732.899.999.990";"152.027.277";FALSE
"30";"Kromeriz";"492.916.582";"1.739.938";FALSE
"31";"Kutna Hora";"4.995.243.139.999.990";"152.686.536";FALSE
"32";"Liberec";"5.076.627.999.999.990";"150.543.387";FALSE
"33";"Litomerice";"505.384.197";"141.305.458";FALSE
"34";"Louny";"5.035.398.120.000.000";"138.033.551";FALSE
"35";"Melnik";"5.035.390.169.999.990";"144.817.813";FALSE
"36";"Mlada Boleslav";"504.134.249";"14.908.438";FALSE
"37";"Most";"505.015.549";"136.329.122";FALSE
"38";"Nachod";"5.041.457.219.999.990";"161.656.347";FALSE
"39";"Novy Jicin";"495.943.251";"180.135.356";FALSE
"40";"Nymburk";"501.855.816";"150.436.604";FALSE
"41";"Olomouc";"49.593.778";"172.508.787";FALSE
"42";"Opava";"499.406.598";"178.947.989";FALSE
"43";"Ostrava";"498.209.226";"182.625.243";FALSE
"44";"Pardubice";"500.343.092";"157.811.994";FALSE
"45";"Pelhrimov";"494.306.207";"15.222.983";FALSE
"46";"Pisek";"49.303.454";"14.158.029";FALSE
"47";"Plzen";"497.384.314";"133.736.371";FALSE
"48";"Praha";"500.755.381";"144.378.005";FALSE
"49";"Prachatice";"4.901.091";"140.000.005";FALSE
"50";"Prostejov";"494.724.489";"171.067.513";FALSE
"51";"Prerov";"494.564.788";"1.745.023";FALSE
"52";"Pribram";"49.685.432";"139.989.449";FALSE
"53";"Rakovnik";"50.106.123";"137.396.623";FALSE
"54";"Rokycany";"497.380.972";"135.928.926";FALSE
"55";"Rychnov nad Kneznou";"501.659.651";"162.776.842";FALSE
"56";"Semily";"506.051.576";"153.281.409";FALSE
"57";"Sokolov";"501.745.286";"126.598.918";FALSE
"58";"Stare Mesto";"490.751.484";"17.433.388";TRUE
"59";"Strakonice";"492.604.043";"139.103.085";FALSE
"60";"Svitavy";"4.975.516.289.999.990";"164.691.861";FALSE
"61";"Sumperk";"4.997.784.069.999.990";"169.717.754";FALSE
"62";"Tabor";"494.129.888";"146.774.664";FALSE
"63";"Tachov";"497.987.803";"126.361.921";FALSE
"64";"Teplice";"506.444.579";"13.835.284";FALSE
"65";"Trutnov";"505.653.838";"159.090.923";FALSE
"66";"Trebic";"492.147.869";"158.795.516";FALSE
"67";"Trebon";"490.041.957";"147.721.233";FALSE
"68";"Uherske Hradiste";"4.905.979.689.999.990";"174.958.501";FALSE
"69";"Usti nad Labem";"506.611.164";"140.531.455";FALSE
"70";"Usti nad Orlici";"499.721.801";"163.996.617";FALSE
"71";"Vsetin";"493.389.251";"179.938.523";FALSE
"72";"Vysoke Myto";"499.542.636";"161.641.685";FALSE
"73";"Vyskov";"492.774.517";"169.960.993";FALSE
"74";"Zlin";"492.244.365";"176.627.635";FALSE
"75";"Znojmo";"488.559.107";"160.542.676";FALSE
"76";"Zdar nad Sazavou";"495.641.882";"159.394.069";FALSE
