"";"V1";"V2";"pmutation";"popSize";"param1";"param2_control";"percDiff"
"1";0,7;1;0,1;5;"[5, 0.7, 0.1]";"[5, 1, 0.1]";2,06538975032257
"2";0,7;1;0,2;5;"[5, 0.7, 0.2]";"[5, 1, 0.2]";3,57619658201698
"3";0,7;1;0,1;15;"[15, 0.7, 0.1]";"[15, 1, 0.1]";-0,0419355107385826
"4";0,7;1;0,2;15;"[15, 0.7, 0.2]";"[15, 1, 0.2]";1,02149698060592
"5";0,7;1;0,1;30;"[30, 0.7, 0.1]";"[30, 1, 0.1]";-0,364945256163779
"6";0,7;1;0,2;30;"[30, 0.7, 0.2]";"[30, 1, 0.2]";-0,0334230000266444
"7";0,7;1;0,1;50;"[50, 0.7, 0.1]";"[50, 1, 0.1]";-0,721969235597797
"8";0,7;1;0,2;50;"[50, 0.7, 0.2]";"[50, 1, 0.2]";-0,0392991223118599
"9";1;0,7;0,1;5;"[5, 1, 0.1]";"[5, 0.7, 0.1]";-2,10894774080072
"10";1;0,7;0,2;5;"[5, 1, 0.2]";"[5, 0.7, 0.2]";-3,70883169430134
"11";1;0,7;0,1;15;"[15, 1, 0.1]";"[15, 0.7, 0.1]";0,0419179322395991
"12";1;0,7;0,2;15;"[15, 1, 0.2]";"[15, 0.7, 0.2]";-1,03203923018089
"13";1;0,7;0,1;30;"[30, 1, 0.1]";"[30, 0.7, 0.1]";0,363618248614927
"14";1;0,7;0,2;30;"[30, 1, 0.2]";"[30, 0.7, 0.2]";0,033411832789767
"15";1;0,7;0,1;50;"[50, 1, 0.1]";"[50, 0.7, 0.1]";0,716794201976967
"16";1;0,7;0,2;50;"[50, 1, 0.2]";"[50, 0.7, 0.2]";0,0392836841687654
