"";"param";"min";"max";"mean";"std";"var"
"1";"[5, 0.8, 0.1]";5507665,35152698;6532487,79605161;5983063,24117913;232356,188035311;53989398118,3006
"2";"[5, 0.8, 0.2]";5465699,53090816;6815725,4165262;6031317,13967361;358651,035291796;128630565115,877
"3";"[5, 1, 0.1]";5411739,56004;6906169,37736635;5926129,07281839;371343,481522886;137895981269,538
"4";"[5, 1, 0.2]";5401078,48830518;6922881,53495451;6075403,51103595;366341,971881614;134206440362,109
"5";"[15, 0.8, 0.1]";5431439,74451875;6085001,97951145;5682307,29168194;180392,569896099;32541479273,7191
"6";"[15, 0.8, 0.2]";5407155,86657906;6091302,96938627;5675422,04684631;171818,67850654;29521658283,7336
"7";"[15, 1, 0.1]";5313794,61351624;6062055,49185976;5652316,10472253;188816,566862068;35651695921,5778
"8";"[15, 1, 0.2]";5426632,5501938;6039658,12669631;5649750,71002629;160577,394831365;25785099730,828
"9";"[30, 0.8, 0.1]";5369825,10853098;5783348,91752675;5552143,69775456;113266,868780589;12829383563,3592
"10";"[30, 0.8, 0.2]";5313794,61351624;5879241,25043686;5532749,80839713;140479,915100096;19734606546,5301
"11";"[30, 1, 0.1]";5305080,44494761;5680915,55562204;5510320,65388195;92300,1506602367;8519317811,90239
"12";"[30, 1, 0.2]";5353207,08100392;5844898,01180769;5547677,79582625;102432,615673494;10492440753,7138
"13";"[50, 0.8, 0.1]";5305080,44494761;5684453,49780502;5466087,54548398;83112,46143874;6907681246,40604
"14";"[50, 0.8, 0.2]";5362894,69933271;5700563,3233131;5508745,70121589;89192,165713539;7955242424,6714
"15";"[50, 1, 0.1]";5354224,42533067;5692202,51380831;5490912,87487996;85904,2829971402;7379545837,25276
"16";"[50, 1, 0.2]";5354224,42533067;5792378,06582023;5512891,66755987;95351,3391053252;9091877869,17871
