warehouse;from_factory
As;493,5391
Babice;7,9053
Bakov nad Jizerou;337,5629
Bavorov;313,9772
Bechyne;264,5302
Bela nad Radbuzou;436,5254
Benatky nad Jizerou;310,176
Benesov nad Cernou;270,7025
Beroun;304,5396
Bila Tremesna;263,8117
Bilina;375,0755
Bilovice;10,5357
Blansko;88,1434
Blatna;356,6952
Blovice;378,0165
Blsany;361,9171
Bohumin;143,2786
Bojkovice;36,7662
Bor u Tachova;419,3862
Borovany;279,038
Boskovice;111,1524
Bosovice;58,3695
Brandys nad Labem;294,4517
Breclav;69,4128
Brestek;7,2606
Breznice;335,5878
Brno;74,4451
Brtnice;167,9524
Brumov - Bylnice;56,4272
Bruntal;127,467
Buchlovice;9,0421
Bylany u Mostu;369,1217
Bystrice nad Perstejnem;143,9508
Bystrice pod Hostynem;51,1883
Bystrice u Benesova;246,847
Bzenec;24,563
Caslav;209,9284
Celakovice;296,9656
Cepi;236,9222
Cernosice;282,1891
Cernovice;215,4655
Cervena Voda;162,7448
Cerveny Kostelec;250,4878
Ceska Bela;181,9909
Ceska Kamenice;375,6292
Ceska Lipa;373,5826
Ceska Trebova;178,1617
Ceske Budejovice;278,9459
Ceske Libchavy;189,6831
Ceske Velenice;235,1535
Cesky Brod;271,1706
Cesky Krumlov;305,0142
Cesky Tesin;168,3247
Chabarovice;364,7258
Cheb;474,8891
Chlum u Trebone;255,8167
Chlumin;307,3475
Chocen;194,3961
Chodova Plana;433,138
Chomutov;373,6784
Chornice;113,398
Chotebor;187,8826
Chotesov;381,8035
Chrast;201,1668
Chrastany;287,3803
Chropyne;49,1728
Chrudim;204,8491
Chudenin;423,2516
Chvaletice;225,6068
Chynava;308,552
Cirkvice;216,0591
Cista;353,6252
Dacice;184,2754
Dasice;216,8803
Davle;281,6069
Decin;386,729
Depoltovice;424,7664
Destna;224,426
Dobrany;375,0375
Dobris;303,2922
Dobrovice;329,7479
Dobruska;223,2005
Doksy;356,3808
Dolni Bela;390,453
Dolni Bucice - Vrdy;213,1593
Dolni Poustevna;431,9006
Dolni Roven;211,7293
Dolni Rychnov;446,1619
Dolni Zandov;453,6891
Domazlice;421,4712
Doudleby nad Orlici;202,7265
Drahotuse;71,3041
Dubi;370,4483
Duchcov;374,6995
Dvur Kralove;266,3656
Frantiskovy Lazne;477,9998
Frenstat pod Radhostem;126,6393
Frydek-Mistek;141,4307
Frydlant nad Ostravici;135,9769
Fulnek;106,5233
Golcuv Jenikov;196,7757
Habry;189,5268
Harrachov;397,645
Havirov;150,2164
Havlickuv Brod;171,8675
Hermanova Hut;391,397
Hermanuv Mestec;230,0551
Hlinsko v Cechach;176,7929
Hluboka nad Vltavou;276,1057
Hlucin;140,5216
Hluk;15,9834
Hodkovice nad Mohelkou;362,3919
Hodonin;46,8056
Holesov;40,5406
Holice;209,8079
Holysov;395,5685
Horazdovice;320,3598
Horice;255,3483
Horni Cerekev;182,7377
Horni Jeleni;205,0292
Horni Lidec;66,8294
Horni Plana;330,0583
Horni Police;362,7925
Horomerice;297,1466
Horovice;326,3235
Horsovsky Tyn;411,0383
Hostivice;293,5223
Hostomice;313,2738
Hradec Kralove;232,0667
Hranice;74,6776
Hroznova Lhota;28,0636
Hrusovany nad Jevisovkou;117,2201
Hudcov;373,2438
Hulin;35,5767
Humpolec;177,4314
Hustopece;96,1983
Ivancice;97,2388
Jablonec nad Jizerou;394,014
Jablonec nad Nisou;372,569
Jablonne nad Orlici;170,8743
Janovice nad Uhlavou;411,4748
Jaromer;253,1781
Jarosov nad Nezarkou;223,3042
Jedovnice;78,8102
Jenec;297,9071
Jenisov;432,9281
Jevicko;118,2897
Jicin;288,0097
Jihlava;157,0468
Jilemnice;317,986
Jilove u Prahy;272,479
Jindrichuv Hradec;230,5327
Jinonice;279,9723
Jirikov;429,6924
Jirkov;376,7538
Kamenice;259,4341
Kamenice nad Lipou;209,8453
Kaplice;311,537
Karlovy Vary;426,9964
Karvina;162,9165
Kasejovice;357,7553
Katovice;308,9329
Kaznejov;379,909
Kdyne;421,6984
Kladno;307,712
Kladruby;400,5146
Klasterec nad Ohri;392,5464
Klatovy;403,1958
Klicany;292,1925
Kojetin;51,9186
Kolin;229,3105
Komarov;330,594
Kopidlno;272,475
Koprivnice;114,6181
Korycany;27,8273
Kosmonosy;330,3277
Kosova Hora;268,5137
Kostelec na Hane;81,9337
Kostelec nad Cernymi Lesy;259,9216
Kostelni Lhota;250,882
Kraliky;168,6003
Kralovice;363,8568
Kralupy nad Vltavou;305,1475
Kraslice;460,1938
Kravare;143,3495
Kremze;297,2304
Kretin;117,4366
Krnov;156,1445
Kromeriz;44,1075
Krupka;373,0361
Kryry;361,1797
Kuncice;179,9878
Kunovice;7,6798
Kunzak;209,1794
Kvasice;26,7204
Kyjov;29,1247
Kynsperk nad Ohri;474,4117
Lanskroun;163,901
Lasenice;240,5714
Laziste;323,8034
Ledec nad Sazavou;198,8789
Letovice;112,4772
Lety u Dobrichovic;288,6536
Liban;279,873
Libcany;256,6799
Liberec;374,5149
Libeznice;289,1709
Libis;302,4275
Line;378,6311
Lipnik nad Becvou;63,4935
Lisov;281,3002
Litomerice;342,4388
Litomysl;176,3883
Litovel;110,57
Litvinov;378,4557
Lochovice;322,7861
Lodenice;297,7822
Loket;439,809
Lomnice nad Luznici;261,4193
Lomnice nad Popelkou;300,9111
Louny;340,7708
Lovosice;339,4608
Lubna;341,2977
Luby u Chebu;495,8276
Luhacovice;37,3538
Lukavec;205,7372
Lulec;56,2547
Luzany u Prestic;384,591
Luze;197,0942
Luzna;333,6005
Lysa nad Labem;308,3923
Malenovice;120,1699
Malsice;244,3096
Manetin;386,3887
Marianske Lazne;442,888
Meclov;416,3343
Melnik;311,3202
Merin;133,2035
Mestec Kralove;253,1276
Mestecko Trnavka;118,1706
Mezirici;244,8037
Mikulov;80,5099
Mimon;366,044
Mirosov;353,3838
Mirotice;287,3859
Mlada Boleslav;329,1061
Mnichovo Hradiste;341,5729
Mnisek u Liberce;384,9248
Modrice;74,6105
Mohelnice;123,9002
Moravska Trebova;144,2268
Moravske Budejovice;153,2424
Moravsky Beroun;106,2116
Moravsky Krumlov;108,2144
Morkovice-Slizany;34,7595
Most;367,4471
Mratin;299,3414
Mseno;338,4134
Mukarov;254,9454
Mutenice;49,2514
Nachod;239,0246
Napajedla;13,8694
Nejdek;432,442
Nemcice na Hane;46,3623
Nepomuk;390,1715
Neratovice;300,7892
Netolice;301,1249
Netvorice;262,5003
Nivnice;28,3488
Nizbor;312,0148
Nova Bystrice;224,9315
Nova Paka;301,6828
Nova Vcelnice;217,8913
Nova Ves v Horach;386,5041
Nove Hrady;254,6387
Nove Mesto na Morave;143,1988
Nove Mesto nad Metuji;229,717
Nove Straseci;322,8208
Novy Bor;384,462
Novy Bydzov;255,1198
Novy Jicin;103,9482
Novy Oldrichov;391,7292
Nymburk;253,2808
Nyrany;382,7566
Nyrsko;419,5984
Odolena voda;301,9182
Odry;97,6857
Ohnic;357,4536
Olesnice;120,0989
Olomouc;92,3672
Oparany;252,2796
Opatovice nad Labem;230,4357
Opava;133,1315
Ostrava;131,5184
Ostrov;413,1982
Ostrov nad Ohri;415,573
Otrokovice;22,3059
Pacov;208,4826
Pardubice;216,2584
Paskov;132,6162
Pecky;251,486
Pelhrimov;191,4985
Pernink;430,7466
Peruc;332,2509
Petrovice u Karvine;160,6766
Pisek;281,0695
Plana;430,8972
Planice;404,0401
Plasy;386,1324
Plzen;367,5303
Pobezovice;422,5169
Pocatky;194,206
Pocinovice;416,7149
Podborany;365,3058
Podebrady;253,0766
Pohnanec;225,9915
Pohorelice;94,6451
Police nad Metuji;258,2294
Policka;143,9213
Polna;157,5067
Popuvky u Kojetina;50,8885
Postrekov;426,09
Povrly;372,5331
Prachatice;319,9315
Praha;279,1979
Prelouc;232,7255
Prerov;49,977
Prestice;381,5623
Pribor;114,1163
Pribram;321,7331
Pribyslav;178,6894
Primda;427,9862
Prostejov;76,0553
Radnice;346,3909
Rajec - Jestrebi;94,3477
Rakovnik;336,1475
Revnice;290,231
Ricany u Prahy;260,3751
Rohovladova Bela;242,8742
Rokycany;351,8983
Rokytnice v Orlickych horach;197,4084
Rosice;88,4541
Roudnice nad Labem;322,8909
Rousinov;55,1109
Rozmital pod Tremsinem;335,7697
Roznov pod Radhostem;91,4451
Roztoky u Krivoklatu;329,4218
Rudna u Prahy;288,5667
Rumburk;409,9395
Rybniste;406,128
Rychnov nad Kneznou;206,1854
Rychnov u Jablonce nad Nisou;367,5367
Sadska;310,8435
Sardice;38,4272
Sazava;243,9553
Sedlcany;272,7945
Semily;376,3884
Sestajovice;292,5225
Sezemice;220,6675
Slany;314,2878
Slavicin;47,3927
Slavkov u Brna;49,2586
Slavonice;197,1541
Sluknov;419,5816
Slusovice;42,0371
Sobenov;300,3388
Sobeslav;240,6476
Sokolov;443,9311
Solnice;210,4635
Spalene Porici;356,5437
Stahlavy;361,128
Stankov;400,6189
Stara Boleslav;294,4517
Stare Hradiste;221,5552
Stare Mesto;0
Stechovice;285,7662
Sternberk;90,7087
Steti;333,7322
Stod;388,2043
Strakonice;303,0101
Stramberk;112,0665
Strani;34,3883
Strasice;342,2446
Straznice;29,3143
Strelice;81,4157
Stribro;403,6995
Stritez-Kaplice-nadr;305,0571
Strmilov;204,7897
Studena;197,2742
Suchdol nad Luznici;268,331
Sumperk;150,8499
Susice;339,3314
Svetla nad Sazavou;194,2629
Svihov;392,7648
Svitavy;160,753
Tabor;235,7663
Tachov;427,7332
Techlovice;376,498
Telc;177,4702
Tepla;418,8408
Teplice;366,7825
Terezin;335,5205
Tisa;377,9188
Tisnov;96,047
Touzim;414,8664
Trebechovice pod Orebem;230,368
Trebenice;343,2577
Trebic;142,926
Trebon;260,164
Tremosna;371,0162
Trhove Sviny;286,6169
Trinec;170,5176
Troubsko;81,6634
Trutnov;280,7363
Tuchlovice;313,7261
Turnov;356,1567
Tvrdonice;63,6465
Tyn nad Vltavou;274,093
Tynec nad Labem;229,2369
Tynec nad Sazavou;257,4354
Tyniste nad Orlici;224,065
Uherske Hradiste;5,5604
Uhersky Brod;23,0167
Uhlirske Janovice;235,5234
Ujezd u Brna;61,6888
Unhost;304,28
Unicov;126,2954
Upice;258,1977
Ustek;346,2897
Usti nad Labem;363,6288
Usti nad Orlici;182,3454
Uvaly u Prahy;272,637
Valasske Klobouky;60,1328
Valasske Mezirici;77,8207
Valy u Prelouce;236,1977
Varnsdorf;406,849
Vejprnice;379,6315
Velesin;298,8641
Velka Bites;105,0286
Velka Bystrice;72,9993
Velka nad Velickou;37,051
Velke Karlovice;87,2405
Velke Mezirici;122,106
Velke Pavlovice;59,204
Velke Pritocno;303,3316
Velvary;314,1486
Vemyslice;113,7603
Veseli nad Luznici;248,8888
Veseli nad Moravou;20,4675
Vestec;265,91
Vikyrovice;152,4828
Vitezna-Koclerov;272,7335
Vizovice;43,5411
Vlachovo Brezi;322,0298
Vlasim;222,7542
Vlkos u Kyjova;27,1673
Vojkovice;87,4616
Volary;337,9587
Votice;260,658
Vrchlabi;320,2134
Vsetin;61,8134
Vyskov;55,8978
Vysoke Myto;192,6366
Vyssi Brod;333,4187
Zamberk;184,4712
Zatec;360,7416
Zbiroh;334,7814
Zbysov u Brna;95,3182
Zdanice;46,0332
Zdar nad Sazavou;151,7202
Zdiby;289,5494
Zdice;317,2029
Zdirec;178,9433
Zelechovice nad Drevnici;35,2207
Zelezny Brod;368,378
Zidlochovice;86,828
Zirovnice;198,1339
Zlin;28,7874
Znojmo;134,6753
Zruc nad Sazavou;369,338
Zruc-Senec;215,734
